{
    "cursos": [
        {
            "id": 0,
            "name": "AngularJS",
            "state": "main.angular",
            "inscritos": [
                {
                    "id": 10,
                    "nombre": "Juan",
                    "apellido": "Perez"
                }
            ]
        },
        {
            "id": 1,
            "name": "Java SE",
            "state": "main.java",
            "inscritos": [
                {
                    "id": 21,
                    "nombre": "Maria",
                    "apellido": "Rodriguez"
                },
                {
                    "id": 22,
                    "nombre": "Lourdes",
                    "apellido": "Fernandez"
                }
            ]
        }
    ]
}